/Users/mmusleh97/SeleniumTestNGFramework/src/test/java/CarvanaTest.java
/Users/mmusleh97/SeleniumTestNGFramework/src/test/java/utilities/Waiter.java
/Users/mmusleh97/SeleniumTestNGFramework/src/test/java/utilities/Base.java
/Users/mmusleh97/SeleniumTestNGFramework/src/test/java/utilities/Driver.java
